module gitlab.com/MaxIV/kubernetes/mortalgpu

go 1.21

toolchain go1.21.8

require (
	atomicgo.dev/cursor v0.2.0
	github.com/NVIDIA/go-nvml v0.12.0-2
	github.com/fsnotify/fsnotify v1.7.0
	github.com/go-logr/logr v1.4.1
	github.com/golang-jwt/jwt v3.2.2+incompatible
	github.com/jedib0t/go-pretty/v6 v6.5.4
	github.com/markbates/pkger v0.17.1
	github.com/onsi/ginkgo v1.16.5
	github.com/onsi/gomega v1.31.1
	github.com/prometheus/client_golang v1.19.0
	github.com/prometheus/procfs v0.12.0
	github.com/shirou/gopsutil/v3 v3.24.2
	github.com/spf13/cobra v1.8.0
	github.com/spf13/viper v1.18.2
	go.uber.org/zap v1.27.0
	golang.org/x/exp v0.0.0-20240222234643-814bf88cf225
	google.golang.org/grpc v1.62.1
	google.golang.org/protobuf v1.33.0
	k8s.io/api v0.29.2
	k8s.io/apimachinery v0.29.2
	k8s.io/kubelet v0.29.2
	sigs.k8s.io/controller-runtime v0.17.2
)

require (
	github.com/beorn7/perks v1.0.1 // indirect
	github.com/cespare/xxhash/v2 v2.2.0 // indirect
	github.com/davecgh/go-spew v1.1.2-0.20180830191138-d8f796af33cc // indirect
	github.com/emicklei/go-restful/v3 v3.11.3 // indirect
	github.com/evanphx/json-patch/v5 v5.9.0 // indirect
	github.com/go-ole/go-ole v1.3.0 // indirect
	github.com/go-openapi/jsonpointer v0.20.3 // indirect
	github.com/go-openapi/jsonreference v0.20.5 // indirect
	github.com/go-openapi/swag v0.22.10 // indirect
	github.com/gobuffalo/here v0.6.7 // indirect
	github.com/gogo/protobuf v1.3.2 // indirect
	github.com/golang/protobuf v1.5.4 // indirect
	github.com/google/gnostic-models v0.6.8 // indirect
	github.com/google/go-cmp v0.6.0 // indirect
	github.com/google/gofuzz v1.2.0 // indirect
	github.com/google/uuid v1.6.0 // indirect
	github.com/hashicorp/hcl v1.0.0 // indirect
	github.com/imdario/mergo v1.0.0 // indirect
	github.com/inconshreveable/mousetrap v1.1.0 // indirect
	github.com/josharian/intern v1.0.0 // indirect
	github.com/json-iterator/go v1.1.12 // indirect
	github.com/lufia/plan9stats v0.0.0-20240226150601-1dcf7310316a // indirect
	github.com/magiconair/properties v1.8.7 // indirect
	github.com/mailru/easyjson v0.7.7 // indirect
	github.com/mattn/go-runewidth v0.0.15 // indirect
	github.com/mitchellh/mapstructure v1.5.0 // indirect
	github.com/modern-go/concurrent v0.0.0-20180306012644-bacd9c7ef1dd // indirect
	github.com/modern-go/reflect2 v1.0.2 // indirect
	github.com/munnerz/goautoneg v0.0.0-20191010083416-a7dc8b61c822 // indirect
	github.com/nxadm/tail v1.4.11 // indirect
	github.com/pelletier/go-toml/v2 v2.1.1 // indirect
	github.com/pkg/errors v0.9.1 // indirect
	github.com/power-devops/perfstat v0.0.0-20240221224432-82ca36839d55 // indirect
	github.com/prometheus/client_model v0.6.0 // indirect
	github.com/prometheus/common v0.49.0 // indirect
	github.com/rivo/uniseg v0.4.7 // indirect
	github.com/sagikazarmark/locafero v0.4.0 // indirect
	github.com/sagikazarmark/slog-shim v0.1.0 // indirect
	github.com/shoenig/go-m1cpu v0.1.6 // indirect
	github.com/sourcegraph/conc v0.3.0 // indirect
	github.com/spf13/afero v1.11.0 // indirect
	github.com/spf13/cast v1.6.0 // indirect
	github.com/spf13/pflag v1.0.5 // indirect
	github.com/subosito/gotenv v1.6.0 // indirect
	github.com/tklauser/go-sysconf v0.3.13 // indirect
	github.com/tklauser/numcpus v0.7.0 // indirect
	github.com/yusufpapurcu/wmi v1.2.4 // indirect
	go.uber.org/multierr v1.11.0 // indirect
	golang.org/x/net v0.22.0 // indirect
	golang.org/x/oauth2 v0.18.0 // indirect
	golang.org/x/sys v0.18.0 // indirect
	golang.org/x/term v0.18.0 // indirect
	golang.org/x/text v0.14.0 // indirect
	golang.org/x/time v0.5.0 // indirect
	google.golang.org/appengine v1.6.8 // indirect
	google.golang.org/genproto/googleapis/rpc v0.0.0-20240304212257-790db918fca8 // indirect
	gopkg.in/inf.v0 v0.9.1 // indirect
	gopkg.in/ini.v1 v1.67.0 // indirect
	gopkg.in/tomb.v1 v1.0.0-20141024135613-dd632973f1e7 // indirect
	gopkg.in/yaml.v2 v2.4.0 // indirect
	gopkg.in/yaml.v3 v3.0.1 // indirect
	k8s.io/client-go v0.29.2 // indirect
	k8s.io/klog/v2 v2.120.1 // indirect
	k8s.io/kube-openapi v0.0.0-20240228011516-70dd3763d340 // indirect
	k8s.io/utils v0.0.0-20240102154912-e7106e64919e // indirect
	sigs.k8s.io/json v0.0.0-20221116044647-bc3834ca7abd // indirect
	sigs.k8s.io/structured-merge-diff/v4 v4.4.1 // indirect
	sigs.k8s.io/yaml v1.4.0 // indirect
)

// A workaround because the module was renamed.
replace github.com/imdario/mergo v1.0.0 => dario.cat/mergo v1.0.0
